\babel@toc {english}{}
\contentsline {section}{\numberline {1}Day 1: Getting to know the generators}{1}
\contentsline {section}{\numberline {2}Day 2: Minimum bias heavy ion collisions}{2}
\contentsline {subsection}{\numberline {2.1}Collisions of protons and Lead (pPb)}{2}
\contentsline {subsubsection}{\numberline {2.1.1}The Glauber calculation}{3}
\contentsline {subsection}{\numberline {2.2}Collisions of Lead on Lead (PbPb)}{4}
\contentsline {subsection}{\numberline {2.3}Number of subcollisions}{4}
\contentsline {subsection}{\numberline {2.4}The secondary absorptive events}{4}
\contentsline {subsection}{\numberline {2.5}Scaling behaviours}{4}
\contentsline {subsection}{\numberline {2.6}Open ended extra assignment: Xenon--Xenon (XeXe) collisions}{5}
\contentsline {section}{\numberline {3}Day 3: Adding a signal process}{5}
\contentsline {section}{\numberline {4}Your presentation}{5}
