\relax 
\Newlabel{author}{1}
\Newlabel{a}{a}
\Newlabel{b}{b}
\bibcite{1}{{1}{}{{}}{{}}}
\bibcite{2}{{2}{}{{}}{{}}}
\bibcite{3}{{3}{}{{}}{{}}}
\bibstyle{elsarticle-num}
\bibdata{<your-bib-database>}
\providecommand\NAT@force@numbers{}\NAT@force@numbers
\@writefile{toc}{\contentsline {section}{\numberline {1}}{2}}
\newlabel{}{{1}{2}}
