\relax 
\Newlabel{author}{1}
\Newlabel{lund}{a}
\Newlabel{bohr}{b}
\bibcite{1}{{1}{}{{}}{{}}}
\bibcite{2}{{2}{}{{}}{{}}}
\bibcite{3}{{3}{}{{}}{{}}}
\citation{Sjostrand:2014zea}
\citation{Bellm:2015jjp}
\citation{Gleisberg:2008ta}
\citation{Zapp:2013vla}
\citation{Cao:2017zih}
\citation{Wang:1991hta}
\citation{Bierlich:2016smv}
\@writefile{toc}{\contentsline {section}{\numberline {1}Introduction}{2}}
\newlabel{sec:intro}{{1}{2}}
\citation{NilssonAlmqvist:1986rx}
\citation{Bierlich:2016smv,Bierlich:2018xyz}
\citation{Dobbs:2001ck}
\citation{Dobbs:2001ck}
\@writefile{toc}{\contentsline {section}{\numberline {2}Structure of the program}{3}}
\newlabel{sec:struct}{{2}{3}}
\citation{Glauber:1955qq}
\citation{Broniowski:2007nz}
\@writefile{lof}{\contentsline {figure}{\numberline {1}{\ignorespaces Flowchart indicating the typical workflow. The user initializes a Glauber calculation along with the input generator(s), the events are merged together, and a single heavy ion event is produced in the HepMC format.}}{4}}
\newlabel{fig:flowchart}{{1}{4}}
\@writefile{toc}{\contentsline {section}{\numberline {3}Glauber calculation}{4}}
\newlabel{sec:glauber}{{3}{4}}
\@writefile{toc}{\contentsline {subsection}{\numberline {3.1}Sampling the Woods-Saxon distribution}{4}}
\citation{}
\@writefile{lof}{\contentsline {figure}{\numberline {2}{\ignorespaces (left) Sample PbPb-event at intermediate impact parameter, showing overlapping nucleons leading to sub-collisions. (right) The distribution of number of sub-collisions in PbPb and pPb with $\sigma _{NN} = 62.9$mb, indicating the vast difference in complexity for the two types of systems.}}{5}}
\newlabel{fig:wounded}{{2}{5}}
\@writefile{toc}{\contentsline {subsection}{\numberline {3.2}Performing sub-collisions}{5}}
\citation{Bierlich:2016smv}
\@writefile{toc}{\contentsline {subsection}{\numberline {3.3}Glauber--Gribov fluctuations}{6}}
\@writefile{toc}{\contentsline {section}{\numberline {4}Merging sub-events}{6}}
\newlabel{sec:merge}{{4}{6}}
\@writefile{toc}{\contentsline {subsection}{\numberline {4.1}Combination of events}{6}}
\citation{}
\@writefile{toc}{\contentsline {subsection}{\numberline {4.2}Momentum conservation}{7}}
\@writefile{toc}{\contentsline {subsection}{\numberline {4.3}Adding a signal process}{7}}
\@writefile{toc}{\contentsline {section}{\numberline {5}Reading out results}{7}}
\newlabel{sec:results}{{5}{7}}
\citation{}
\@writefile{toc}{\contentsline {subsection}{\numberline {5.1}Minimum bias results}{8}}
\@writefile{lof}{\contentsline {figure}{\numberline {3}{\ignorespaces }}{9}}
\newlabel{fig:pa-mult}{{3}{9}}
\@writefile{lof}{\contentsline {figure}{\numberline {4}{\ignorespaces }}{9}}
\newlabel{fig:aa-mult}{{4}{9}}
\citation{}
\citation{}
\citation{}
\@writefile{lof}{\contentsline {figure}{\numberline {5}{\ignorespaces }}{10}}
\newlabel{fig:aa-pt1}{{5}{10}}
\@writefile{toc}{\contentsline {subsection}{\numberline {5.2}Results with an embedded jet}{10}}
\@writefile{lof}{\contentsline {figure}{\numberline {6}{\ignorespaces }}{11}}
\newlabel{fig:aa-pt1}{{6}{11}}
\@writefile{lof}{\contentsline {figure}{\numberline {7}{\ignorespaces }}{11}}
\newlabel{fig:jetpt}{{7}{11}}
\bibstyle{elsarticle-num}
\bibdata{hiwig.bib}
\providecommand\NAT@force@numbers{}\NAT@force@numbers
\@writefile{toc}{\contentsline {subsection}{\numberline {5.3}Tuning}{12}}
\@writefile{toc}{\contentsline {section}{\numberline {6}Conclusions}{12}}
\newlabel{sec:conclusion}{{6}{12}}
\@writefile{toc}{\contentsline {section}{\numberline {Appendix A}Correlated Collisions}{12}}
\newlabel{app:correlatedCollisions}{{Appendix A}{12}}
\@writefile{toc}{\contentsline {section}{\numberline {Appendix B}Bibliography}{12}}
